{
  "type": "service_account",
  "project_id": "xdrink-d55ba",
  "private_key_id": "c76c6b73c87ed14c310782e0a98d55d46e470a86",
  "private_key": "-----BEGIN PRIVATE KEY-----\nMIIEvQIBADANBgkqhkiG9w0BAQEFAASCBKcwggSjAgEAAoIBAQCZ1F4E228kdTJQ\nIpDZ7Od1MkrEDWRxmMiWD0Q/lBKA/zzgYVbXdutv3IZt7bJxpBpMne1lvu+IW8hD\nezy4RiaU7+4bVwrf/7xZI9ubP/lhLNWasiGglMuL45yJ5gJA/djMuPd/hhBGRRyh\n+BnRYFqOg3k4gAbZYFnOe0AIcXz1VNmpDbOwwjrZBcknZUJxMJ2IEWe30TSW/aHX\nbxX+svFU/7p3Tf5LyJsMrwo1KJF8j03E3xF+Jm2f5zYRkHXyl9ev29Cb6lfBb91s\n/wn4axk99HipO+WIFOzzXpE1W3UmGwpfdibs+rDqiMKXBmd9x6E87T+ye/13tVAc\nalH9YL4vAgMBAAECggEAIy/nvbawCqfgNWJiveap3y382jGyCyYGpASj+OMXBHjd\n5Pl/EtQ58KGCAn0/tyzxcxsg5YgyZH+SJJV5AzHQu3rSfWCAtVJbNAy2vCF7GtZV\nmggrFv9SPBJ5iTWayGEIiXO58WqqKFjAvu/wf+tJa5X5UYo/htO6VzfsIsJK8hb2\nzzKbituEtuw3m4Za6qUooi4BRYgibqjF33w9UTXIxwu958HiWyhpCQdfz2LdB38C\nbWSns1CTsr1wAb3wOSFs+ytwthEG/bkX/F6kCwyl8vbX9ygzrKgo04NDDJ+Pkknr\n19lP3/Y0fb5SjpuUwNNXRtkmF16uvyegp6atT36mcQKBgQDLKd9gtw6/geyUuydc\nTNVeKwE+8JznoIAe7sCl3GxZdZHDEhpPIHhrl8SzbAcEhx9n1P0uVqtILtYnwLOZ\nQ2bFe1LGIQtxFX8uUeWCEEu4/AKbdUt/NcA7Mcjfp4AE495zvQs9x2SW8Vq25iVL\nXJy9Vv9Zp7N1iZho1euzOvaGhwKBgQDB1fVtpD9H3OWxFrREw+M+SCrKpBqz9Q1k\ncHVANVlTq6S7nhsTEYOVZfuxIGqvFt9/Q4YQK2MM7k5vRog6vig0z1jv82vNOzbK\nKjO8pUEwNbRE01lkNNviT7tA0Ha7jayPOhvzqVm1stfe1MFtETLy43Ikq9+rD2Ow\nwtfQQzFNGQKBgQC4BjarIUV/nI0Sb7AIgCQpByU6wLIvcQd8fWENG+sc4Uzl+GjS\nUaQiOTfYGbsFk+uTnq6yoZjGan5bRcaoxg+6Q6nHg7kcdo9cApy0QlSEu+kUrZt0\nH9j/BWphhBSG2WzvQ0aCcDEiNH6p+y++4qWrL7lemXQJvFfMZjD4iSky0wKBgDvQ\nyuwKw3xprnf3iamuyXFu08W03oiqFnfoPEaUL/yh+zPqlnBL908jKYh/eGyPomij\nbbuPqAFViN7N5Tw7cizZz5g8hgfPPhkk7NJKLNOzvu1+SxehODmeYSqfKgS2s4l/\nZSDMIeLwTa11+jquFArgJVkrsNoY5aqmdfLOyWgBAoGARHG073jg6Gvfiu+uNVeS\nh/NSKrUZtlyDMfARGtdYOtRAFin87PRZ/P928lvvMS29L443rjGGzaEZ8CokuEJG\nmVgvjzGU4qEwqUhUt61t49yWHL+K+BHY6OmtcewGM8Jh3jrRlmhJKwRsiR1qmDTt\nx1rLyPkY13gy64BIMdbkbI0=\n-----END PRIVATE KEY-----\n",
  "client_email": "firebase-adminsdk-7izca@xdrink-d55ba.iam.gserviceaccount.com",
  "client_id": "117683262166213137904",
  "auth_uri": "https://accounts.google.com/o/oauth2/auth",
  "token_uri": "https://oauth2.googleapis.com/token",
  "auth_provider_x509_cert_url": "https://www.googleapis.com/oauth2/v1/certs",
  "client_x509_cert_url": "https://www.googleapis.com/robot/v1/metadata/x509/firebase-adminsdk-7izca%40xdrink-d55ba.iam.gserviceaccount.com"
}
